riscv_core_tb.vcd
$version Generated by VerilatedVcd $end
$timescale 1ps $end
 $scope module $rootio $end
 $upscope $end
 $scope module tb_top $end
  $var wire 1 ] clk $end
  $var wire 1 ^ rst_n $end
  $var wire 32 # imem_addr [31:0] $end
  $var wire 32 $ imem_data [31:0] $end
  $var wire 32 % dmem_addr [31:0] $end
  $var wire 32 & dmem_wdata [31:0] $end
  $var wire 4 ' dmem_be [3:0] $end
  $var wire 1 ( dmem_we $end
  $var wire 32 _ dmem_rdata [31:0] $end
  $scope module dut $end
   $var wire 1 ] clk_i $end
   $var wire 1 ^ rst_ni $end
   $var wire 32 # imem_addr_o [31:0] $end
   $var wire 32 $ imem_data_i [31:0] $end
   $var wire 32 % dmem_addr_o [31:0] $end
   $var wire 32 & dmem_wdata_o [31:0] $end
   $var wire 4 ' dmem_be_o [3:0] $end
   $var wire 1 ( dmem_we_o $end
   $var wire 32 _ dmem_rdata_i [31:0] $end
   $var wire 32 ) registers[0] [31:0] $end
   $var wire 32 * registers[1] [31:0] $end
   $var wire 32 + registers[2] [31:0] $end
   $var wire 32 , registers[3] [31:0] $end
   $var wire 32 - registers[4] [31:0] $end
   $var wire 32 . registers[5] [31:0] $end
   $var wire 32 / registers[6] [31:0] $end
   $var wire 32 0 registers[7] [31:0] $end
   $var wire 32 1 registers[8] [31:0] $end
   $var wire 32 2 registers[9] [31:0] $end
   $var wire 32 3 registers[10] [31:0] $end
   $var wire 32 4 registers[11] [31:0] $end
   $var wire 32 5 registers[12] [31:0] $end
   $var wire 32 6 registers[13] [31:0] $end
   $var wire 32 7 registers[14] [31:0] $end
   $var wire 32 8 registers[15] [31:0] $end
   $var wire 32 9 registers[16] [31:0] $end
   $var wire 32 : registers[17] [31:0] $end
   $var wire 32 ; registers[18] [31:0] $end
   $var wire 32 < registers[19] [31:0] $end
   $var wire 32 = registers[20] [31:0] $end
   $var wire 32 > registers[21] [31:0] $end
   $var wire 32 ? registers[22] [31:0] $end
   $var wire 32 @ registers[23] [31:0] $end
   $var wire 32 A registers[24] [31:0] $end
   $var wire 32 B registers[25] [31:0] $end
   $var wire 32 C registers[26] [31:0] $end
   $var wire 32 D registers[27] [31:0] $end
   $var wire 32 E registers[28] [31:0] $end
   $var wire 32 F registers[29] [31:0] $end
   $var wire 32 G registers[30] [31:0] $end
   $var wire 32 H registers[31] [31:0] $end
   $var wire 32 # pc_current [31:0] $end
   $var wire 32 I pc_next [31:0] $end
   $var wire 7 J opcode [6:0] $end
   $var wire 3 K funct3 [2:0] $end
   $var wire 7 L funct7 [6:0] $end
   $var wire 5 M rd [4:0] $end
   $var wire 5 N rs1 [4:0] $end
   $var wire 5 O rs2 [4:0] $end
   $var wire 32 P imm [31:0] $end
   $var wire 32 Q rs1_data [31:0] $end
   $var wire 32 & rs2_data [31:0] $end
   $var wire 32 % alu_result [31:0] $end
   $var wire 32 R alu_op2 [31:0] $end
   $var wire 1 S branch_taken $end
   $scope module ctrl $end
    $var wire 1 T reg_write $end
    $var wire 1 U mem_read $end
    $var wire 1 ( mem_write $end
    $var wire 1 V branch $end
    $var wire 1 W jump $end
    $var wire 1 X alu_src $end
    $var wire 4 Y alu_op [3:0] $end
    $var wire 2 Z mem_size [1:0] $end
    $var wire 1 [ mem_unsigned $end
   $upscope $end
   $var wire 32 ` load_data [31:0] $end
   $scope module unnamedblk1 $end
    $var wire 32 \ i [31:0] $end
   $upscope $end
  $upscope $end
 $upscope $end
$enddefinitions $end


#0
b00000000000000000000000000000000 #
b00000000000000000000000000000000 $
b00000000000000000000000000000000 %
b00000000000000000000000000000000 &
b0001 '
0(
b00000000000000000000000000000000 )
b00000000000000000000000000000000 *
b00000000000000000000000000000000 +
b00000000000000000000000000000000 ,
b00000000000000000000000000000000 -
b00000000000000000000000000000000 .
b00000000000000000000000000000000 /
b00000000000000000000000000000000 0
b00000000000000000000000000000000 1
b00000000000000000000000000000000 2
b00000000000000000000000000000000 3
b00000000000000000000000000000000 4
b00000000000000000000000000000000 5
b00000000000000000000000000000000 6
b00000000000000000000000000000000 7
b00000000000000000000000000000000 8
b00000000000000000000000000000000 9
b00000000000000000000000000000000 :
b00000000000000000000000000000000 ;
b00000000000000000000000000000000 <
b00000000000000000000000000000000 =
b00000000000000000000000000000000 >
b00000000000000000000000000000000 ?
b00000000000000000000000000000000 @
b00000000000000000000000000000000 A
b00000000000000000000000000000000 B
b00000000000000000000000000000000 C
b00000000000000000000000000000000 D
b00000000000000000000000000000000 E
b00000000000000000000000000000000 F
b00000000000000000000000000000000 G
b00000000000000000000000000000000 H
b00000000000000000000000000000100 I
b0000000 J
b000 K
b0000000 L
b00000 M
b00000 N
b00000 O
b00000000000000000000000000000000 P
b00000000000000000000000000000000 Q
b00000000000000000000000000000000 R
1S
0T
0U
0V
0W
0X
b0000 Y
b00 Z
0[
b00000000000000000000000000000000 \
0]
0^
b00000000000000000000000000000000 _
b00000000000000000000000000000000 `
#5
b00000000000000000000000000100000 \
1]
#10
0]
#15
1]
#20
0]
#25
1]
#30
0]
#35
1]
#40
0]
#45
1]
#50
0]
#55
1]
#60
0]
#65
1]
#70
0]
#75
1]
#80
0]
#85
1]
#90
0]
#95
1]
#100
0]
1^
#105
b00000000000000000000000000000100 #
b00000000000000000000000000001000 I
1]
#110
0]
#115
b00000000000000000000000000001000 #
b00000000000000000000000000001100 I
1]
#120
0]
#125
b00000000000000000000000000001100 #
b00000000000000000000000000010000 I
1]
#130
0]
#135
b00000000000000000000000000010000 #
b00000000000000000000000000010100 I
1]
#140
0]
#145
b00000000000000000000000000010100 #
b00000000000000000000000000011000 I
1]
#150
0]
#155
b00000000000000000000000000011000 #
b00000000000000000000000000011100 I
1]
#160
0]
#165
b00000000000000000000000000011100 #
b00000000000000000000000000100000 I
1]
#170
0]
#175
b00000000000000000000000000100000 #
b00000000000000000000000000100100 I
1]
#180
0]
#185
b00000000000000000000000000100100 #
b00000000000000000000000000101000 I
1]
#190
0]
#195
b00000000000000000000000000101000 #
b00000000000000000000000000101100 I
1]
#200
0]
#205
b00000000000000000000000000101100 #
b00000000000000000000000000110000 I
1]
#210
0]
#215
b00000000000000000000000000110000 #
b00000000000000000000000000110100 I
1]
#220
0]
#225
b00000000000000000000000000110100 #
b00000000000000000000000000111000 I
1]
#230
0]
#235
b00000000000000000000000000111000 #
b00000000000000000000000000111100 I
1]
#240
0]
#245
b00000000000000000000000000111100 #
b00000000000000000000000001000000 I
1]
#250
0]
#255
b00000000000000000000000001000000 #
b00000000000000000000000001000100 I
1]
#260
0]
#265
b00000000000000000000000001000100 #
b00000000000000000000000001001000 I
1]
#270
0]
#275
b00000000000000000000000001001000 #
b00000000000000000000000001001100 I
1]
#280
0]
#285
b00000000000000000000000001001100 #
b00000000000000000000000001010000 I
1]
#290
0]
#295
b00000000000000000000000001010000 #
b00000000000000000000000001010100 I
1]
#300
0]
#305
b00000000000000000000000001010100 #
b00000000000000000000000001011000 I
1]
#310
0]
#315
b00000000000000000000000001011000 #
b00000000000000000000000001011100 I
1]
#320
0]
#325
b00000000000000000000000001011100 #
b00000000000000000000000001100000 I
1]
#330
0]
#335
b00000000000000000000000001100000 #
b00000000000000000000000001100100 I
1]
#340
0]
#345
b00000000000000000000000001100100 #
b00000000000000000000000001101000 I
1]
#350
0]
#355
b00000000000000000000000001101000 #
b00000000000000000000000001101100 I
1]
#360
0]
#365
b00000000000000000000000001101100 #
b00000000000000000000000001110000 I
1]
#370
0]
#375
b00000000000000000000000001110000 #
b00000000000000000000000001110100 I
1]
#380
0]
#385
b00000000000000000000000001110100 #
b00000000000000000000000001111000 I
1]
#390
0]
#395
b00000000000000000000000001111000 #
b00000000000000000000000001111100 I
1]
#400
0]
#405
b00000000000000000000000001111100 #
b00000000000000000000000010000000 I
1]
#410
0]
#415
b00000000000000000000000010000000 #
b00000000000000000000000010000100 I
1]
#420
0]
#425
b00000000000000000000000010000100 #
b00000000000000000000000010001000 I
1]
#430
0]
#435
b00000000000000000000000010001000 #
b00000000000000000000000010001100 I
1]
#440
0]
#445
b00000000000000000000000010001100 #
b00000000000000000000000010010000 I
1]
#450
0]
#455
b00000000000000000000000010010000 #
b00000000000000000000000010010100 I
1]
#460
0]
#465
b00000000000000000000000010010100 #
b00000000000000000000000010011000 I
1]
#470
0]
#475
b00000000000000000000000010011000 #
b00000000000000000000000010011100 I
1]
#480
0]
#485
b00000000000000000000000010011100 #
b00000000000000000000000010100000 I
1]
#490
0]
#495
b00000000000000000000000010100000 #
b00000000000000000000000010100100 I
1]
#500
0]
#505
b00000000000000000000000010100100 #
b00000000000000000000000010101000 I
1]
#510
0]
#515
b00000000000000000000000010101000 #
b00000000000000000000000010101100 I
1]
#520
0]
#525
b00000000000000000000000010101100 #
b00000000000000000000000010110000 I
1]
#530
0]
#535
b00000000000000000000000010110000 #
b00000000000000000000000010110100 I
1]
#540
0]
#545
b00000000000000000000000010110100 #
b00000000000000000000000010111000 I
1]
#550
0]
#555
b00000000000000000000000010111000 #
b00000000000000000000000010111100 I
1]
#560
0]
#565
b00000000000000000000000010111100 #
b00000000000000000000000011000000 I
1]
#570
0]
#575
b00000000000000000000000011000000 #
b00000000000000000000000011000100 I
1]
#580
0]
#585
b00000000000000000000000011000100 #
b00000000000000000000000011001000 I
1]
#590
0]
#595
b00000000000000000000000011001000 #
b00000000000000000000000011001100 I
1]
#600
0]
#605
b00000000000000000000000011001100 #
b00000000000000000000000011010000 I
1]
#610
0]
#615
b00000000000000000000000011010000 #
b00000000000000000000000011010100 I
1]
#620
0]
#625
b00000000000000000000000011010100 #
b00000000000000000000000011011000 I
1]
#630
0]
#635
b00000000000000000000000011011000 #
b00000000000000000000000011011100 I
1]
#640
0]
#645
b00000000000000000000000011011100 #
b00000000000000000000000011100000 I
1]
#650
0]
#655
b00000000000000000000000011100000 #
b00000000000000000000000011100100 I
1]
#660
0]
#665
b00000000000000000000000011100100 #
b00000000000000000000000011101000 I
1]
#670
0]
#675
b00000000000000000000000011101000 #
b00000000000000000000000011101100 I
1]
#680
0]
#685
b00000000000000000000000011101100 #
b00000000000000000000000011110000 I
1]
#690
0]
#695
b00000000000000000000000011110000 #
b00000000000000000000000011110100 I
1]
#700
0]
#705
b00000000000000000000000011110100 #
b00000000000000000000000011111000 I
1]
#710
0]
#715
b00000000000000000000000011111000 #
b00000000000000000000000011111100 I
1]
#720
0]
#725
b00000000000000000000000011111100 #
b00000000000000000000000100000000 I
1]
#730
0]
#735
b00000000000000000000000100000000 #
b00000000000000000000000100000100 I
1]
#740
0]
#745
b00000000000000000000000100000100 #
b00000000000000000000000100001000 I
1]
#750
0]
#755
b00000000000000000000000100001000 #
b00000000000000000000000100001100 I
1]
#760
0]
#765
b00000000000000000000000100001100 #
b00000000000000000000000100010000 I
1]
#770
0]
#775
b00000000000000000000000100010000 #
b00000000000000000000000100010100 I
1]
#780
0]
#785
b00000000000000000000000100010100 #
b00000000000000000000000100011000 I
1]
#790
0]
#795
b00000000000000000000000100011000 #
b00000000000000000000000100011100 I
1]
#800
0]
#805
b00000000000000000000000100011100 #
b00000000000000000000000100100000 I
1]
#810
0]
#815
b00000000000000000000000100100000 #
b00000000000000000000000100100100 I
1]
#820
0]
#825
b00000000000000000000000100100100 #
b00000000000000000000000100101000 I
1]
#830
0]
#835
b00000000000000000000000100101000 #
b00000000000000000000000100101100 I
1]
#840
0]
#845
b00000000000000000000000100101100 #
b00000000000000000000000100110000 I
1]
#850
0]
#855
b00000000000000000000000100110000 #
b00000000000000000000000100110100 I
1]
#860
0]
#865
b00000000000000000000000100110100 #
b00000000000000000000000100111000 I
1]
#870
0]
#875
b00000000000000000000000100111000 #
b00000000000000000000000100111100 I
1]
#880
0]
#885
b00000000000000000000000100111100 #
b00000000000000000000000101000000 I
1]
#890
0]
#895
b00000000000000000000000101000000 #
b00000000000000000000000101000100 I
1]
#900
0]
#905
b00000000000000000000000101000100 #
b00000000000000000000000101001000 I
1]
#910
0]
#915
b00000000000000000000000101001000 #
b00000000000000000000000101001100 I
1]
#920
0]
#925
b00000000000000000000000101001100 #
b00000000000000000000000101010000 I
1]
#930
0]
#935
b00000000000000000000000101010000 #
b00000000000000000000000101010100 I
1]
#940
0]
#945
b00000000000000000000000101010100 #
b00000000000000000000000101011000 I
1]
#950
0]
#955
b00000000000000000000000101011000 #
b00000000000000000000000101011100 I
1]
#960
0]
#965
b00000000000000000000000101011100 #
b00000000000000000000000101100000 I
1]
#970
0]
#975
b00000000000000000000000101100000 #
b00000000000000000000000101100100 I
1]
#980
0]
#985
b00000000000000000000000101100100 #
b00000000000000000000000101101000 I
1]
#990
0]
#995
b00000000000000000000000101101000 #
b00000000000000000000000101101100 I
1]
#1000
0]
#1005
b00000000000000000000000101101100 #
b00000000000000000000000101110000 I
1]
#1010
0]
#1015
b00000000000000000000000101110000 #
b00000000000000000000000101110100 I
1]
#1020
0]
#1025
b00000000000000000000000101110100 #
b00000000000000000000000101111000 I
1]
#1030
0]
#1035
b00000000000000000000000101111000 #
b00000000000000000000000101111100 I
1]
#1040
0]
#1045
b00000000000000000000000101111100 #
b00000000000000000000000110000000 I
1]
#1050
0]
#1055
b00000000000000000000000110000000 #
b00000000000000000000000110000100 I
1]
#1060
0]
#1065
b00000000000000000000000110000100 #
b00000000000000000000000110001000 I
1]
#1070
0]
#1075
b00000000000000000000000110001000 #
b00000000000000000000000110001100 I
1]
#1080
0]
#1085
b00000000000000000000000110001100 #
b00000000000000000000000110010000 I
1]
#1090
0]
#1095
b00000000000000000000000110010000 #
b00000000000000000000000110010100 I
1]
